CP02: Salarios NBA (CV y Regularización)
…
#coeficiente de Ridge

ridgeCoef= nba_ridge %>% tidy()
ridgeCoef

## # A tibble: 42,900 x 5
##    term         step estimate lambda dev.ratio
##    <chr>       <dbl>    <dbl>  <dbl>     <dbl>
##  1 (Intercept)     1     15.0   875.  7.36e-36
##  2 (Intercept)     2     14.9   835.  1.28e- 2
##  3 (Intercept)     3     14.9   798.  1.34e- 2
##  4 (Intercept)     4     14.9   761.  1.40e- 2
##  5 (Intercept)     5     14.9   727.  1.47e- 2
##  6 (Intercept)     6     14.9   694.  1.54e- 2
##  7 (Intercept)     7     14.9   662.  1.61e- 2
##  8 (Intercept)     8     14.9   632.  1.69e- 2
##  9 (Intercept)     9     14.9   603.  1.76e- 2
## 10 (Intercept)    10     14.9   576.  1.85e- 2
## # ... with 42,890 more rows
…
ridge_opt

## 
## Call:  glmnet(x = nba_mtx, y = nba$salary, alpha = 0, lambda = ridge_lambda_opt,      standardize = TRUE) 
## 
##    Df  %Dev   Lambda
## 1 577 49.21 43660000

# Tidy

ridge_opt %>% tidy()

## # A tibble: 578 x 5
##    term                   step estimate    lambda dev.ratio
##    <chr>                 <dbl>    <dbl>     <dbl>     <dbl>
##  1 (Intercept)               1 2147699. 43656220.     0.492
##  2 playerAaron Gordon        1 -323587. 43656220.     0.492
##  3 playerAaron Harrison      1 -545124. 43656220.     0.492
##  4 playerAbdel Nader         1 -404079. 43656220.     0.492
##  5 playerAl-Farouq Aminu     1 -160954. 43656220.     0.492
##  6 playerAl Horford          1 2294103. 43656220.     0.492
##  7 playerAl Jefferson        1  409752. 43656220.     0.492
##  8 playerAlan Williams       1  216399. 43656220.     0.492
##  9 playerAlec Burks          1  658005. 43656220.     0.492
## 10 playerAlex Abrines        1  -58560. 43656220.     0.492
## # ... with 568 more rows
…
Como se puede apreciar en ambas gráficas, los coeficientes se aproximan a 0, que es la línea central, en los dos casos. La diferencia entre Ridge y Lasso es que, aunque ambos aproximan a cero los predictores, el primero puede excluir valores de los mismos, mientras que el segundo no excluye ninguno.

#Comprobamos los coeficientes obtenidos con Lasso

coefLasso = nba_lasso %>% tidy()

coefLasso

## # A tibble: 10,146 x 5
##    term         step estimate lambda dev.ratio
##    <chr>       <dbl>    <dbl>  <dbl>     <dbl>
##  1 (Intercept)     1     15.0  0.875    0     
##  2 (Intercept)     2     14.9  0.835    0.0304
##  3 (Intercept)     3     14.8  0.798    0.0582
##  4 (Intercept)     4     14.8  0.761    0.0835
##  5 (Intercept)     5     14.7  0.727    0.106 
##  6 (Intercept)     6     14.7  0.694    0.127 
##  7 (Intercept)     7     14.7  0.662    0.150 
##  8 (Intercept)     8     14.7  0.632    0.176 
##  9 (Intercept)     9     14.7  0.603    0.200 
## 10 (Intercept)    10     14.7  0.576    0.221 
## # ... with 10,136 more rows
…
